Data Wrangling in R
…
---

# Look at the data

- Were the same respondents asked the same questions?

```r
MI_final %>%
  select(LGBT,BRNAGAIN,RACISM20,QLT20) %>%
  drop_na(RACISM20)
```

```
## # A tibble: 616 × 4
##         LGBT  BRNAGAIN                        RACISM20 QLT20
##    <dbl+lbl> <dbl+lbl>                       <dbl+lbl> <dbl>
##  1    2 [No]   1 [Yes] 2 [One of many important probl…    NA
##  2    2 [No]   2 [No]  2 [One of many important probl…    NA
##  3    2 [No]   2 [No]  2 [One of many important probl…    NA
##  4    2 [No]   1 [Yes] 2 [One of many important probl…    NA
##  5    2 [No]   2 [No]  2 [One of many important probl…    NA
##  6    2 [No]   2 [No]  2 [One of many important probl…    NA
##  7    2 [No]   2 [No]  9 [[DON'T READ] Don’t know/ref…    NA
##  8    2 [No]   1 [Yes] 4 [Not a problem at all]           NA
##  9    2 [No]   2 [No]  3 [A minor problem]                NA
## 10    2 [No]   2 [No]  2 [One of many important probl…    NA
## # … with 606 more rows
```
…
---

# Look at the data

- They **either** were asked about `QLT20` **or** identity questions

```r
MI_final %>%
  select(LGBT,BRNAGAIN,RACISM20) %>%
  drop_na()
```

```
## # A tibble: 616 × 3
##         LGBT  BRNAGAIN                            RACISM20
##    <dbl+lbl> <dbl+lbl>                           <dbl+lbl>
##  1    2 [No]   1 [Yes] 2 [One of many important problems] 
##  2    2 [No]   2 [No]  2 [One of many important problems] 
##  3    2 [No]   2 [No]  2 [One of many important problems] 
##  4    2 [No]   1 [Yes] 2 [One of many important problems] 
##  5    2 [No]   2 [No]  2 [One of many important problems] 
##  6    2 [No]   2 [No]  2 [One of many important problems] 
##  7    2 [No]   2 [No]  9 [[DON'T READ] Don’t know/refused]
##  8    2 [No]   1 [Yes] 4 [Not a problem at all]           
##  9    2 [No]   2 [No]  3 [A minor problem]                
## 10    2 [No]   2 [No]  2 [One of many important problems] 
## # … with 606 more rows
```
…
--

- NB: all we've done is change the names of `LGBT`, `BRNAGAIN`, and `RACISM20`.

```r
MI_final %>%
  select(matches('LGBT|BRNAGAIN|RACISM'))
```

```
## # A tibble: 1,231 × 3
##    LGBT_split BRNAGAIN_split                    RACISM_split
##     <dbl+lbl>      <dbl+lbl>                       <dbl+lbl>
##  1    NA            NA       NA                             
##  2     2 [No]        1 [Yes]  2 [One of many important prob…
##  3     2 [No]        2 [No]   2 [One of many important prob…
##  4    NA            NA       NA                             
##  5    NA            NA       NA                             
##  6     2 [No]        2 [No]   2 [One of many important prob…
##  7     2 [No]        1 [Yes]  2 [One of many important prob…
##  8     2 [No]        2 [No]   2 [One of many important prob…
##  9    NA            NA       NA                             
## 10    NA            NA       NA                             
## # … with 1,221 more rows
```
…
  - What if we want to create a new variable that takes on the value `1` for `Female` and `0` for `Male`?

---

# Recoding using `mutate`

```r
MI_final %>%
  mutate(FEMALE = SEX - 1) %>%
  select(FEMALE,SEX)
```

```
## # A tibble: 1,231 × 2
##    FEMALE        SEX
##     <dbl>  <dbl+lbl>
##  1      1 2 [Female]
##  2      1 2 [Female]
##  3      1 2 [Female]
##  4      0 1 [Male]  
##  5      1 2 [Female]
##  6      1 2 [Female]
##  7      0 1 [Male]  
##  8      0 1 [Male]  
##  9      1 2 [Female]
## 10      0 1 [Male]  
## # … with 1,221 more rows
```
…
# Recoding using `mutate`

- Alternatively, we could have used `ifelse` instead

--

```r
MI_final %>%
  mutate(FEMALE = ifelse(SEX == 2,1,0)) %>%
  select(FEMALE,SEX)
```

```
## # A tibble: 1,231 × 2
##    FEMALE        SEX
##     <dbl>  <dbl+lbl>
##  1      1 2 [Female]
##  2      1 2 [Female]
##  3      1 2 [Female]
##  4      0 1 [Male]  
##  5      1 2 [Female]
##  6      1 2 [Female]
##  7      0 1 [Male]  
##  8      0 1 [Male]  
##  9      1 2 [Female]
## 10      0 1 [Male]  
## # … with 1,221 more rows
```
…
--

  - .blue[Theory]: Less educated hurt by free trade &rarr; Trump opposes free trade
  
  - .red[Data]: Examine vote choice by educational attainment

--

```r
MI_final %>%
  group_by(preschoice,EDUC18)
```

```
## # A tibble: 1,231 × 18
## # Groups:   preschoice, EDUC18 [30]
##           SEX           AGE10     PARTYID WEIGHT   QRACEAI
##     <dbl+lbl>       <dbl+lbl>   <dbl+lbl>  <dbl> <dbl+lbl>
##  1 2 [Female]  2 [25 and 29,] 3 [Indepen…  0.405 1 [White]
##  2 2 [Female] 10 [75 or over… 1 [Democra…  1.81  2 [Black]
##  3 2 [Female]  7 [50 and 59,] 1 [Democra…  0.860 1 [White]
##  4 1 [Male]    9 [65 and 74,] 3 [Indepen…  0.199 1 [White]
##  5 2 [Female]  8 [60 and 64,] 3 [Indepen…  0.177 1 [White]
##  6 2 [Female]  7 [50 and 59,] 3 [Indepen…  0.492 1 [White]
##  7 1 [Male]    9 [65 and 74,] 1 [Democra…  1.37  1 [White]
##  8 1 [Male]    8 [60 and 64,] 1 [Democra…  1.15  1 [White]
##  9 2 [Female]  6 [45 and 49,] 2 [Republi…  1.50  1 [White]
## 10 1 [Male]    8 [60 and 64,] 1 [Democra…  1.30  2 [Black]
## # … with 1,221 more rows, and 13 more variables:
## #   EDUC18 <dbl+lbl>, LGBT_split <dbl+lbl>,
## #   BRNAGAIN_split <dbl+lbl>, LATINOS <dbl+lbl>,
## #   RACISM_split <dbl+lbl>, QLT20 <dbl+lbl>, Qlty <fct>,
## #   PRSMI20 <dbl+lbl>, preschoice <fct>, FEMALE <dbl>,
## #   SEX.chr <chr>, BidenVoter <dbl>, TrumpVoter <dbl>
```
…
