Multivariate Analysis Part 3
…
Let’s load the data and packages first.

require(tidyverse)
sc_debt <- read_rds('../data/sc_debt.Rds')

Now let’s look at our two variables of interest before we do anything
else. Are these continuous? Categorical?

sc_debt %>%
  select(sat_avg,md_earn_wne_p6)

## # A tibble: 2,546 × 2
##    sat_avg md_earn_wne_p6
##      <int>          <int>
##  1     939          25200
##  2    1234          35100
##  3      NA          30700
##  4    1319          36200
##  5     946          22600
##  6    1261          37400
##  7      NA          23100
##  8      NA          33400
##  9    1082          30100
## 10    1300          39500
## # … with 2,536 more rows
…
