Multivariate Analysis
…
---

# Bootstrap Demo Step 3

- Randomly sample all players: `size = nrow(nba)`

```r
set.seed(123)

nba %>%
  sample_n(size = nrow(nba),replace = T) %>% select(namePlayer,slugSeason,slugTeam,pctFT)
```

```
## # A tibble: 530 × 4
##    namePlayer        slugSeason slugTeam pctFT
##    <chr>             <chr>      <chr>    <dbl>
##  1 Moritz Wagner     2018-19    LAL      0.811
##  2 Sam Dekker        2018-19    LAC      0.609
##  3 Joe Harris        2018-19    BKN      0.827
##  4 Jonas Valanciunas 2018-19    LAL      0.795
##  5 John Holland      2018-19    CLE      0    
##  6 Angel Delgado     2018-19    LAC      0.5  
##  7 Donovan Mitchell  2018-19    UTA      0.806
##  8 Damian Jones      2018-19    GSW      0.649
##  9 Luke Kornet       2018-19    NYK      0.826
## 10 Justin Anderson   2018-19    ATL      0.743
## # … with 520 more rows
```
…
# Bootstrap to measure Confidence

--

- Compare UVA and UT's FT percentages in each season

```r
bsSeasons %>%
  filter(grepl('Tennessee|^Virginia',org)) %>%
  group_by(bsSeasonNumber,org) %>%
  summarise(mean_ftp = mean(pctFT),.groups = 'drop')
```

```
## # A tibble: 188 × 3
##    bsSeasonNumber org       mean_ftp
##             <int> <fct>        <dbl>
##  1              1 Tennessee    0.866
##  2              1 Virginia     0.785
##  3              2 Tennessee    0.866
##  4              2 Virginia     0.799
##  5              3 Tennessee    0.816
##  6              3 Virginia     0.827
##  7              4 Tennessee    0.847
##  8              4 Virginia     0.852
##  9              5 Tennessee    0.852
## 10              5 Virginia     0.836
## # … with 178 more rows
```
…
# Bootstrap to measure Confidence

- Compare UVA and UT's FT percentages in each season

```r
bsSeasons %>%
  filter(grepl('Tennessee|^Virginia',org)) %>%
  group_by(bsSeasonNumber,org) %>%
  summarise(mean_ftp = mean(pctFT),.groups = 'drop') %>%
* spread(org,mean_ftp)
```

```
## # A tibble: 100 × 3
##    bsSeasonNumber Tennessee Virginia
##             <int>     <dbl>    <dbl>
##  1              1     0.866    0.785
##  2              2     0.866    0.799
##  3              3     0.816    0.827
##  4              4     0.847    0.852
##  5              5     0.852    0.836
##  6              6     0.866    0.771
##  7              7     0.861   NA    
##  8              8     0.842   NA    
##  9              9     0.863    0.836
## 10             10     0.833    0.743
## # … with 90 more rows
```
…
# Bootstrap to measure Confidence

- Compare UVA and UT's FT percentages in each season

```r
bsSeasons %>%
  group_by(bsSeasonNumber,org) %>%
  summarise(mean_ftp = mean(pctFT),.groups = 'drop') %>%
* spread(org,mean_ftp) %>%
  filter(complete.cases(.)) %>%
  mutate(TNWin = ifelse(Tennessee > Virginia,1,0))
```

```
## # A tibble: 95 × 4
##    bsSeasonNumber Tennessee Virginia TNWin
##             <int>     <dbl>    <dbl> <dbl>
##  1              1     0.866    0.878     0
##  2              2     0.848    0.785     1
##  3              3     0.861    0.830     1
##  4              4     0.830    0.810     1
##  5              5     0.844    0.833     1
##  6              6     0.841    0.833     1
##  7              7     0.830    0.810     1
##  8              8     0.863    0.833     1
##  9              9     0.841    0.805     1
## 10             10     0.863    0.810     1
## # … with 85 more rows
```
…
---

# Other NBA Data

--

- Download and load the [`game_summary.Rds`](https://github.com/jbisbee1/DSCI1000/blob/main/Lectures/Topic5_UnivariateDescription/data/game_summary.Rds) data

```r
gms <- readRDS('../data/game_summary.Rds')
gms
```

```
## # A tibble: 7,380 × 16
##      idGame yearSe…¹ dateGame   idTeam nameT…² locat…³   tov
##       <dbl>    <int> <date>      <dbl> <chr>   <chr>   <dbl>
##  1 21600001     2017 2016-10-25 1.61e9 Clevel… H          14
##  2 21600001     2017 2016-10-25 1.61e9 New Yo… A          18
##  3 21600002     2017 2016-10-25 1.61e9 Portla… H          12
##  4 21600002     2017 2016-10-25 1.61e9 Utah J… A          11
##  5 21600003     2017 2016-10-25 1.61e9 Golden… H          16
##  6 21600003     2017 2016-10-25 1.61e9 San An… A          13
##  7 21600004     2017 2016-10-26 1.61e9 Miami … A          10
##  8 21600004     2017 2016-10-26 1.61e9 Orland… H          11
##  9 21600005     2017 2016-10-26 1.61e9 Dallas… A          15
## 10 21600005     2017 2016-10-26 1.61e9 Indian… H          16
## # … with 7,370 more rows, 9 more variables: pts <dbl>,
## #   treb <dbl>, oreb <dbl>, pctFG <dbl>, pctFT <dbl>,
## #   teamrest <dbl>, second_game <lgl>, isWin <lgl>,
## #   ft_80 <dbl>, and abbreviated variable names
## #   ¹​yearSeason, ²​nameTeam, ³​locationGame
```
…
- So let's actually calculate this!

--

- The `spread` command to create two columns

```r
bsRes %>%
  spread(isWin,avgTO,sep = '_') %>%
  mutate(TO_diff = isWin_FALSE - isWin_TRUE)
```

```
## # A tibble: 1,500 × 5
##    yearSeason bsInd isWin_FALSE isWin_TRUE TO_diff
##         <int> <int>       <dbl>      <dbl>   <dbl>
##  1       2017     1        13.7       13.3   0.34 
##  2       2017     2        13.7       13.0   0.641
##  3       2017     3        14.1       13.6   0.546
##  4       2017     4        13.7       12.2   1.46 
##  5       2017     5        13.3       13.1   0.212
##  6       2017     6        14.8       13.2   1.58 
##  7       2017     7        13.9       12.2   1.77 
##  8       2017     8        14.8       13.4   1.40 
##  9       2017     9        14.9       13.3   1.55 
## 10       2017    10        13.8       12.8   0.948
## # … with 1,490 more rows
```
…
