Intro to R
…
--

- We now have the contents of `sc_debt.Rds` stored in the object `df`

--

- We can look at this object directly

```r
df
```

```
## # A tibble: 2,546 × 16
##    unitid instnm       stabbr grad_…¹ control region preddeg
##     <int> <chr>        <chr>    <int> <chr>   <chr>  <chr>  
##  1 100654 Alabama A &… AL       33375 Public  South… Bachel…
##  2 100663 University … AL       22500 Public  South… Bachel…
##  3 100690 Amridge Uni… AL       27334 Private South… Associ…
##  4 100706 University … AL       21607 Public  South… Bachel…
##  5 100724 Alabama Sta… AL       32000 Public  South… Bachel…
##  6 100751 The Univers… AL       23250 Public  South… Bachel…
##  7 100760 Central Ala… AL       12500 Public  South… Associ…
##  8 100812 Athens Stat… AL       19500 Public  South… Bachel…
##  9 100830 Auburn Univ… AL       24826 Public  South… Bachel…
## 10 100858 Auburn Univ… AL       21281 Public  South… Bachel…
## # … with 2,536 more rows, 9 more variables: openadmp <int>,
## #   adm_rate <dbl>, ccbasic <int>, sat_avg <int>,
## #   md_earn_wne_p6 <int>, ugds <int>, costt4_a <int>,
## #   selective <dbl>, research_u <dbl>, and abbreviated
## #   variable name ¹​grad_debt_mdn
```
…
# How does Vandy compare?

--

- `arrange` will sort the data based on a column (ascending!)

```r
df %>%
  filter(adm_rate < .1) %>%
* arrange(sat_avg,adm_rate) %>%
  select(instnm,adm_rate,sat_avg)
```

```
## # A tibble: 25 × 3
##    instnm                                    adm_r…¹ sat_avg
##    <chr>                                       <dbl>   <int>
##  1 Colby College                              0.0967    1456
##  2 Swarthmore College                         0.0893    1469
##  3 Pomona College                             0.074     1480
##  4 Dartmouth College                          0.0793    1500
##  5 Stanford University                        0.0434    1503
##  6 Northwestern University                    0.0905    1506
##  7 Columbia University in the City of New Y…  0.0545    1511
##  8 Brown University                           0.0707    1511
##  9 University of Pennsylvania                 0.0766    1511
## 10 Vanderbilt University                      0.0912    1515
## # … with 15 more rows, and abbreviated variable name
## #   ¹​adm_rate
```
…
# How does Vandy compare?

--

- `arrange` in descending order

```r
df %>%
  filter(adm_rate < .1) %>%
* arrange(-sat_avg,adm_rate) %>%
  select(instnm,adm_rate,sat_avg)
```

```
## # A tibble: 25 × 3
##    instnm                                    adm_r…¹ sat_avg
##    <chr>                                       <dbl>   <int>
##  1 California Institute of Technology         0.0642    1557
##  2 Massachusetts Institute of Technology      0.067     1547
##  3 University of Chicago                      0.0617    1528
##  4 Duke University                            0.076     1522
##  5 Rice University                            0.0872    1520
##  6 Harvard University                         0.0464    1517
##  7 Princeton University                       0.0578    1517
##  8 Yale University                            0.0608    1517
##  9 Vanderbilt University                      0.0912    1515
## 10 Columbia University in the City of New Y…  0.0545    1511
## # … with 15 more rows, and abbreviated variable name
## #   ¹​adm_rate
```
…
# More complicated? More `%>%`!

--

- Less selective schools by SAT with debt and state

```r
df %>%
  filter(adm_rate > .2 & adm_rate < .3) %>%
  arrange(stabbr,-sat_avg) %>%
  select(instnm,sat_avg,grad_debt_mdn,stabbr)
```

```
## # A tibble: 37 × 4
##    instnm                             sat_avg grad_…¹ stabbr
##    <chr>                                <int>   <int> <chr> 
##  1 Heritage Christian University           NA      NA AL    
##  2 University of California-Santa Ba…    1370   15000 CA    
##  3 California Polytechnic State Univ…    1342   19501 CA    
##  4 University of California-Irvine       1306   15488 CA    
##  5 California Institute of the Arts        NA   27000 CA    
##  6 University of Miami                   1371   17125 FL    
##  7 Georgia Institute of Technology-M…    1418   23000 GA    
##  8 Point University                       986   26000 GA    
##  9 Grinnell College                      1457   17500 IA    
## 10 St Luke's College                       NA   17750 IA    
## # … with 27 more rows, and abbreviated variable name
## #   ¹​grad_debt_mdn
```
…
--

  - Will return to `NA` with **data wrangling**...for now, `filter` with `is.na`
  
--

```r
df %>%
  filter(is.na(sat_avg)) %>%
  select(instnm,stabbr,sat_avg)
```

```
## # A tibble: 1,317 × 3
##    instnm                                     stabbr sat_avg
##    <chr>                                      <chr>    <int>
##  1 Amridge University                         AL          NA
##  2 Central Alabama Community College          AL          NA
##  3 Athens State University                    AL          NA
##  4 Chattahoochee Valley Community College     AL          NA
##  5 Coastal Alabama Community College          AL          NA
##  6 Gadsden State Community College            AL          NA
##  7 George C Wallace State Community College-… AL          NA
##  8 Heritage Christian University              AL          NA
##  9 Jefferson State Community College          AL          NA
## 10 Lurleen B Wallace Community College        AL          NA
## # … with 1,307 more rows
```
…
--

```r
df %>%
  filter(instnm != "Vanderbilt University") %>%
  select(instnm,stabbr,adm_rate,sat_avg)
```

```
## # A tibble: 2,545 × 4
##    instnm                             stabbr adm_r…¹ sat_avg
##    <chr>                              <chr>    <dbl>   <int>
##  1 Alabama A & M University           AL       0.918     939
##  2 University of Alabama at Birmingh… AL       0.737    1234
##  3 Amridge University                 AL      NA          NA
##  4 University of Alabama in Huntsvil… AL       0.826    1319
##  5 Alabama State University           AL       0.969     946
##  6 The University of Alabama          AL       0.827    1261
##  7 Central Alabama Community College  AL      NA          NA
##  8 Athens State University            AL      NA          NA
##  9 Auburn University at Montgomery    AL       0.904    1082
## 10 Auburn University                  AL       0.807    1300
## # … with 2,535 more rows, and abbreviated variable name
## #   ¹​adm_rate
```
…
# Manipulating the Data: `contains()` + `matches()`

--

- `select` can be paired with `matches` or `contains` for similar flexibility

--

```r
df %>%
  select(contains('inst'))
```

```
## # A tibble: 2,546 × 1
##    instnm                             
##    <chr>                              
##  1 Alabama A & M University           
##  2 University of Alabama at Birmingham
##  3 Amridge University                 
##  4 University of Alabama in Huntsville
##  5 Alabama State University           
##  6 The University of Alabama          
##  7 Central Alabama Community College  
##  8 Athens State University            
##  9 Auburn University at Montgomery    
## 10 Auburn University                  
## # … with 2,536 more rows
```
…
# Manipulating the Data

- `select` can be paired with `matches` or `contains` for similar flexibility

--

  - `matches` can work with `|`

```r
df %>%
  select(!matches('_|inst'))
```

```
## # A tibble: 2,546 × 9
##    unitid stabbr control region    preddeg   opena…¹ ccbasic
##     <int> <chr>  <chr>   <chr>     <chr>       <int>   <int>
##  1 100654 AL     Public  Southeast Bachelor…       2      18
##  2 100663 AL     Public  Southeast Bachelor…       2      15
##  3 100690 AL     Private Southeast Associate       1      20
##  4 100706 AL     Public  Southeast Bachelor…       2      16
##  5 100724 AL     Public  Southeast Bachelor…       2      19
##  6 100751 AL     Public  Southeast Bachelor…       2      15
##  7 100760 AL     Public  Southeast Associate       1       2
##  8 100812 AL     Public  Southeast Bachelor…      NA      22
##  9 100830 AL     Public  Southeast Bachelor…       2      18
## 10 100858 AL     Public  Southeast Bachelor…       2      15
## # … with 2,536 more rows, 2 more variables: ugds <int>,
## #   selective <dbl>, and abbreviated variable name
## #   ¹​openadmp
```

---

# Manipulating the Data

- `select` can also work with `where` to find classes

```r
df %>%
  select(where(is.numeric))
```

```
## # A tibble: 2,546 × 11
##    unitid grad_deb…¹ opena…² adm_r…³ ccbasic sat_avg md_ea…⁴
##     <int>      <int>   <int>   <dbl>   <int>   <int>   <int>
##  1 100654      33375       2   0.918      18     939   25200
##  2 100663      22500       2   0.737      15    1234   35100
##  3 100690      27334       1  NA          20      NA   30700
##  4 100706      21607       2   0.826      16    1319   36200
##  5 100724      32000       2   0.969      19     946   22600
##  6 100751      23250       2   0.827      15    1261   37400
##  7 100760      12500       1  NA           2      NA   23100
##  8 100812      19500      NA  NA          22      NA   33400
##  9 100830      24826       2   0.904      18    1082   30100
## 10 100858      21281       2   0.807      15    1300   39500
## # … with 2,536 more rows, 4 more variables: ugds <int>,
## #   costt4_a <int>, selective <dbl>, research_u <dbl>, and
## #   abbreviated variable names ¹​grad_debt_mdn, ²​openadmp,
## #   ³​adm_rate, ⁴​md_earn_wne_p6
```
…
--

- `mutate()` creates a new variable

--

```r
df %>%
  mutate(newvar = 1) %>%
  select(matches('instnm|newvar'))
```

```
## # A tibble: 2,546 × 2
##    instnm                              newvar
##    <chr>                                <dbl>
##  1 Alabama A & M University                 1
##  2 University of Alabama at Birmingham      1
##  3 Amridge University                       1
##  4 University of Alabama in Huntsville      1
##  5 Alabama State University                 1
##  6 The University of Alabama                1
##  7 Central Alabama Community College        1
##  8 Athens State University                  1
##  9 Auburn University at Montgomery          1
## 10 Auburn University                        1
## # … with 2,536 more rows
```
…
