Intro to R
…
--

- We now have the contents of `sc_debt.Rds` stored in the object `df`

--

- We can look at this object directly

```r
df
```

```
## # A tibble: 2,546 × 16
##    unitid instnm stabbr grad_debt_mdn control region preddeg
##     <int> <chr>  <chr>          <int> <chr>   <chr>  <chr>  
##  1 100654 Alaba… AL             33375 Public  South… Bachel…
##  2 100663 Unive… AL             22500 Public  South… Bachel…
##  3 100690 Amrid… AL             27334 Private South… Associ…
##  4 100706 Unive… AL             21607 Public  South… Bachel…
##  5 100724 Alaba… AL             32000 Public  South… Bachel…
##  6 100751 The U… AL             23250 Public  South… Bachel…
##  7 100760 Centr… AL             12500 Public  South… Associ…
##  8 100812 Athen… AL             19500 Public  South… Bachel…
##  9 100830 Aubur… AL             24826 Public  South… Bachel…
## 10 100858 Aubur… AL             21281 Public  South… Bachel…
## # … with 2,536 more rows, and 9 more variables:
## #   openadmp <int>, adm_rate <dbl>, ccbasic <int>,
## #   sat_avg <int>, md_earn_wne_p6 <int>, ugds <int>,
## #   costt4_a <int>, selective <dbl>, research_u <dbl>
```
…
# How does Vandy compare? `arrange()`

--

- `arrange` will sort the data based on a column (ascending!)

```r
df %>%
  filter(adm_rate < .1) %>%
  arrange(sat_avg,adm_rate) %>%
  select(instnm,adm_rate,sat_avg)
```

```
## # A tibble: 25 × 3
##    instnm                                   adm_rate sat_avg
##    <chr>                                       <dbl>   <int>
##  1 Colby College                              0.0967    1456
##  2 Swarthmore College                         0.0893    1469
##  3 Pomona College                             0.074     1480
##  4 Dartmouth College                          0.0793    1500
##  5 Stanford University                        0.0434    1503
##  6 Northwestern University                    0.0905    1506
##  7 Columbia University in the City of New …   0.0545    1511
##  8 Brown University                           0.0707    1511
##  9 University of Pennsylvania                 0.0766    1511
## 10 Vanderbilt University                      0.0912    1515
## # … with 15 more rows
```
…
# How does Vandy compare?

--

- `arrange` in descending order

```r
df %>%
  filter(adm_rate < .1) %>%
  arrange(-sat_avg,adm_rate) %>%
  select(instnm,adm_rate,sat_avg)
```

```
## # A tibble: 25 × 3
##    instnm                                   adm_rate sat_avg
##    <chr>                                       <dbl>   <int>
##  1 California Institute of Technology         0.0642    1557
##  2 Massachusetts Institute of Technology      0.067     1547
##  3 University of Chicago                      0.0617    1528
##  4 Duke University                            0.076     1522
##  5 Rice University                            0.0872    1520
##  6 Harvard University                         0.0464    1517
##  7 Princeton University                       0.0578    1517
##  8 Yale University                            0.0608    1517
##  9 Vanderbilt University                      0.0912    1515
## 10 Columbia University in the City of New …   0.0545    1511
## # … with 15 more rows
```
…
# More complicated? More `%>%`!

--

- Less selective schools by SAT with debt and state

```r
df %>%
  filter(adm_rate > .2 & adm_rate < .3) %>%
  arrange(stabbr,-sat_avg) %>%
  select(instnm,sat_avg,grad_debt_mdn,stabbr)
```

```
## # A tibble: 37 × 4
##    instnm                       sat_avg grad_debt_mdn stabbr
##    <chr>                          <int>         <int> <chr> 
##  1 Heritage Christian Universi…      NA            NA AL    
##  2 University of California-Sa…    1370         15000 CA    
##  3 California Polytechnic Stat…    1342         19501 CA    
##  4 University of California-Ir…    1306         15488 CA    
##  5 California Institute of the…      NA         27000 CA    
##  6 University of Miami             1371         17125 FL    
##  7 Georgia Institute of Techno…    1418         23000 GA    
##  8 Point University                 986         26000 GA    
##  9 Grinnell College                1457         17500 IA    
## 10 St Luke's College                 NA         17750 IA    
## # … with 27 more rows
```
…
--

- We will return to this in the lectures on **data wrangling**
  
--

```r
df %>%
  filter(is.na(sat_avg)) %>%
  select(instnm,stabbr)
```

```
## # A tibble: 1,317 × 2
##    instnm                                         stabbr
##    <chr>                                          <chr> 
##  1 Amridge University                             AL    
##  2 Central Alabama Community College              AL    
##  3 Athens State University                        AL    
##  4 Chattahoochee Valley Community College         AL    
##  5 Coastal Alabama Community College              AL    
##  6 Gadsden State Community College                AL    
##  7 George C Wallace State Community College-Selma AL    
##  8 Heritage Christian University                  AL    
##  9 Jefferson State Community College              AL    
## 10 Lurleen B Wallace Community College            AL    
## # … with 1,307 more rows
```
…
