Multivariate Analysis
…
---

# Two-Way Conditional Means

- Or we could add `AGE10` to the `group_by`

```r
MI_final_small %>%
  group_by(SEX, AGE10) %>%
  summarize(PctTrump = mean(TrumpVoter),.groups = 'drop') %>%
  mutate(PctTrump = round(PctTrump, digits =2))
```

```
## # A tibble: 22 × 3
##      SEX AGE10 PctTrump
##    <dbl> <dbl>    <dbl>
##  1     1     1     0.44
##  2     1     2     0.42
##  3     1     3     0.42
##  4     1     4     0.24
##  5     1     5     0.42
##  6     1     6     0.58
##  7     1     7     0.54
##  8     1     8     0.44
##  9     1     9     0.39
## 10     1    10     0.43
## # … with 12 more rows
```
…
---

# `gather()`

```r
MI_final_small %>%
  group_by(SEX, AGE10) %>%
  summarize(PctTrump = mean(TrumpVoter),.groups = 'drop') %>%
  spread(key = SEX,value = PctTrump,fill = NA) %>%
  rename(Male = `1`,Female = `2`) %>%
* gather(SEX,PctTrump,-AGE10)
```

```
## # A tibble: 22 × 3
##    AGE10 SEX   PctTrump
##    <dbl> <chr>    <dbl>
##  1     1 Male     0.438
##  2     2 Male     0.417
##  3     3 Male     0.423
##  4     4 Male     0.241
##  5     5 Male     0.419
##  6     6 Male     0.583
##  7     7 Male     0.537
##  8     8 Male     0.443
##  9     9 Male     0.395
## 10    10 Male     0.425
## # … with 12 more rows
```
…
